abr 18, 2019 8:35:24 PM Negocio.Log logWarning
ADVERTENCIA: 
 Las distancias no pueden ser negativas
abr 18, 2019 8:35:24 PM Negocio.Log logWarning
ADVERTENCIA: No es una infracción porque la distancia es mayor que la de la Restriccion perimetral
abr 20, 2019 12:49:06 AM Negocio.Log logWarning
ADVERTENCIA:  Las distancias 400 y 4001 tienen una diferencia de 3601 metros
abr 20, 2019 12:49:07 AM Negocio.Log logWarning
ADVERTENCIA: 
 Las distancias no pueden ser negativas
abr 20, 2019 12:49:07 AM Negocio.Log logWarning
ADVERTENCIA: No es una infracción porque la distancia es mayor que la de la Restriccion perimetral
abr 20, 2019 1:00:22 AM Negocio.Log logWarning
ADVERTENCIA:  Las distancias 400 y 4001 tienen una diferencia de 3601 metros
abr 20, 2019 1:00:22 AM Negocio.Log logWarning
ADVERTENCIA: 
 Las distancias no pueden ser negativas
abr 20, 2019 1:00:22 AM Negocio.Log logWarning
ADVERTENCIA: No es una infracción porque la distancia es mayor que la de la Restriccion perimetral
abr 20, 2019 3:02:41 PM Negocio.Log logWarning
ADVERTENCIA: 
 Las distancias no pueden ser negativas
abr 20, 2019 3:02:41 PM Negocio.Log logWarning
ADVERTENCIA: No es una infracción porque la distancia es mayor que la de la Restriccion perimetral
abr 20, 2019 3:04:25 PM Negocio.Log logWarning
ADVERTENCIA: No es una infracción porque la distancia es mayor que la de la Restriccion perimetral
abr 20, 2019 3:04:59 PM Negocio.Log logWarning
ADVERTENCIA:  Las distancias 400 y 4001 tienen una diferencia de 3601 metros
abr 20, 2019 3:05:00 PM Negocio.Log logWarning
ADVERTENCIA: 
 Las distancias no pueden ser negativas
abr 20, 2019 3:05:00 PM Negocio.Log logWarning
ADVERTENCIA: No es una infracción porque la distancia es mayor que la de la Restriccion perimetral
may 01, 2019 11:47:47 PM Negocio.Log logWarning
ADVERTENCIA:  Las distancias 400 y 4001 tienen una diferencia de 3601 metros
may 01, 2019 11:47:47 PM Negocio.Log logWarning
ADVERTENCIA: 
 Las distancias no pueden ser negativas
may 01, 2019 11:47:47 PM Negocio.Log logWarning
ADVERTENCIA: No es una infraccion porque la distancia es mayor que la de la Restriccion perimetral
may 02, 2019 1:49:13 AM Negocio.Log logWarning
ADVERTENCIA:  Las distancias 400 y 4001 tienen una diferencia de 3601 metros
may 02, 2019 1:49:13 AM Negocio.Log logWarning
ADVERTENCIA: 
 Las distancias no pueden ser negativas
may 02, 2019 1:49:13 AM Negocio.Log logWarning
ADVERTENCIA: No es una infraccion porque la distancia es mayor que la de la Restriccion perimetral
may 02, 2019 1:49:48 AM Negocio.Log logWarning
ADVERTENCIA:  Las distancias 400 y 4001 tienen una diferencia de 3601 metros
may 02, 2019 1:49:48 AM Negocio.Log logWarning
ADVERTENCIA: 
 Las distancias no pueden ser negativas
may 02, 2019 1:49:48 AM Negocio.Log logWarning
ADVERTENCIA: No es una infraccion porque la distancia es mayor que la de la Restriccion perimetral
may 02, 2019 1:53:51 AM Negocio.Log logWarning
ADVERTENCIA:  Las distancias 400 y 4001 tienen una diferencia de 3601 metros
may 02, 2019 1:53:51 AM Negocio.Log logWarning
ADVERTENCIA: 
 Las distancias no pueden ser negativas
may 02, 2019 1:53:51 AM Negocio.Log logWarning
ADVERTENCIA: No es una infraccion porque la distancia es mayor que la de la Restriccion perimetral
may 02, 2019 1:59:45 AM Negocio.Log logWarning
ADVERTENCIA:  Las distancias 400 y 4001 tienen una diferencia de 3601 metros
may 02, 2019 1:59:45 AM Negocio.Log logWarning
ADVERTENCIA: 
 Las distancias no pueden ser negativas
may 02, 2019 1:59:45 AM Negocio.Log logWarning
ADVERTENCIA: No es una infraccion porque la distancia es mayor que la de la Restriccion perimetral
may 02, 2019 2:00:08 AM Negocio.Log logWarning
ADVERTENCIA:  Las distancias 400 y 4001 tienen una diferencia de 3601 metros
may 02, 2019 2:00:08 AM Negocio.Log logWarning
ADVERTENCIA: 
 Las distancias no pueden ser negativas
may 02, 2019 2:00:08 AM Negocio.Log logWarning
ADVERTENCIA: No es una infraccion porque la distancia es mayor que la de la Restriccion perimetral
may 02, 2019 6:25:55 PM Negocio.Log logWarning
ADVERTENCIA:  Las distancias 400 y 4001 tienen una diferencia de 3601 metros
may 02, 2019 6:25:55 PM Negocio.Log logWarning
ADVERTENCIA: 
 Las distancias no pueden ser negativas
may 02, 2019 6:25:55 PM Negocio.Log logWarning
ADVERTENCIA: No es una infraccion porque la distancia es mayor que la de la Restriccion perimetral
may 02, 2019 9:14:52 PM Negocio.Log logWarning
ADVERTENCIA:  Las distancias 400 y 4001 tienen una diferencia de 3601 metros
may 02, 2019 9:14:52 PM Negocio.Log logWarning
ADVERTENCIA: 
 Las distancias no pueden ser negativas
may 02, 2019 9:14:52 PM Negocio.Log logWarning
ADVERTENCIA: No es una infraccion porque la distancia es mayor que la de la Restriccion perimetral
may 02, 2019 9:19:38 PM Negocio.Log logWarning
ADVERTENCIA:  Las distancias 400 y 4001 tienen una diferencia de 3601 metros
may 02, 2019 9:19:38 PM Negocio.Log logWarning
ADVERTENCIA: 
 Las distancias no pueden ser negativas
may 02, 2019 9:19:38 PM Negocio.Log logWarning
ADVERTENCIA: No es una infraccion porque la distancia es mayor que la de la Restriccion perimetral
may 02, 2019 9:40:15 PM Negocio.Log logWarning
ADVERTENCIA:  Las distancias 400 y 4001 tienen una diferencia de 3601 metros
may 02, 2019 9:40:15 PM Negocio.Log logWarning
ADVERTENCIA: 
 Las distancias no pueden ser negativas
may 02, 2019 9:40:15 PM Negocio.Log logWarning
ADVERTENCIA: No es una infraccion porque la distancia es mayor que la de la Restriccion perimetral
may 24, 2019 4:48:07 PM Negocio.Log logWarning
ADVERTENCIA: Servicio de notificacion telegram erróneo
may 24, 2019 4:48:20 PM Negocio.Log logWarning
ADVERTENCIA: NO SE PUDO NOTIFICAR VIA WHATSAPP
may 24, 2019 4:48:20 PM Negocio.Log logWarning
ADVERTENCIA: NO SE PUDO NOTIFICAR VIA SMS
